<GroupBox Header="TabControl  TabStripPlacement=Left">
                <TabControl TabStripPlacement="Left">
                    <TabItem Header="General">
                        <Label Content="Content Tabs 3" />
                    </TabItem>
                    <TabItem Header="Security" />
                    <TabItem Header="Details" />
                </TabControl>
            </GroupBox>
            