            <StackPanel>
                <Border Background="LightGreen" Width="180" Height="90" Padding="5" BorderBrush="Green">
                    
                    <StackPanel>
                        <Button x:Name="btn11" Width="150" Height="25" >Press me</Button>
                        <Button x:Name="btn21" Width="150" Height="25">Push me</Button>
                        <Button x:Name="btn31" Width="150" Height="25">Click me</Button>
                    </StackPanel>
                </Border>
            </StackPanel>